%YAML 1.1
%TAG !u! tag:unity3d.com,2011:
--- !u!114 &11400000
MonoBehaviour:
  m_ObjectHideFlags: 0
  m_PrefabParentObject: {fileID: 0}
  m_PrefabInternal: {fileID: 0}
  m_GameObject: {fileID: 0}
  m_Enabled: 1
  m_EditorHideFlags: 0
  m_Script: {fileID: 11500000, guid: 2bbcd782178fca346aba6b13535bec29, type: 3}
  m_Name: StarDustShape_line_100
  m_EditorClassIdentifier: 
  type: 0
  rarity: 0
  points:
  - {x: 0, y: -1.5}
  - {x: 0.5, y: -1.5}
  - {x: 1, y: -1.5}
  - {x: 1.5, y: -1.5}
  - {x: 2, y: -1.5}
  - {x: 2.5, y: -1.5}
  - {x: 3, y: -1.5}
  - {x: 3.5, y: -1.5}
  - {x: 4, y: -1.5}
  - {x: 4.5, y: -1.5}
  - {x: 5, y: -1.5}
  - {x: 5.5, y: -1.5}
  - {x: 6, y: -1.5}
  - {x: 6.5, y: -1.5}
  - {x: 7, y: -1.5}
  - {x: 7.5, y: -1.5}
  - {x: 8, y: -1.5}
  - {x: 8.5, y: -1.5}
  - {x: 9, y: -1.5}
  - {x: 9.5, y: -1.5}
  - {x: 10, y: -1.5}
  - {x: 10.5, y: -1.5}
  - {x: 11, y: -1.5}
  - {x: 11.5, y: -1.5}
  - {x: 12, y: -1.5}
  - {x: 12, y: -1}
  - {x: 11.5, y: -1}
  - {x: 11, y: -1}
  - {x: 10.5, y: -1}
  - {x: 10, y: -1}
  - {x: 9.5, y: -1}
  - {x: 9, y: -1}
  - {x: 8.5, y: -1}
  - {x: 8, y: -1}
  - {x: 7.5, y: -1}
  - {x: 7, y: -1}
  - {x: 6.5, y: -1}
  - {x: 6, y: -1}
  - {x: 5.5, y: -1}
  - {x: 5, y: -1}
  - {x: 4.5, y: -1}
  - {x: 4, y: -1}
  - {x: 3.5, y: -1}
  - {x: 3, y: -1}
  - {x: 2.5, y: -1}
  - {x: 2, y: -1}
  - {x: 1.5, y: -1}
  - {x: 1, y: -1}
  - {x: 0.5, y: -1}
  - {x: 0, y: -1}
  - {x: 0, y: -0.5}
  - {x: 0.5, y: -0.5}
  - {x: 1, y: -0.5}
  - {x: 1.5, y: -0.5}
  - {x: 2, y: -0.5}
  - {x: 2.5, y: -0.5}
  - {x: 3, y: -0.5}
  - {x: 3.5, y: -0.5}
  - {x: 4, y: -0.5}
  - {x: 4.5, y: -0.5}
  - {x: 5, y: -0.5}
  - {x: 5.5, y: -0.5}
  - {x: 6, y: -0.5}
  - {x: 6.5, y: -0.5}
  - {x: 7, y: -0.5}
  - {x: 7.5, y: -0.5}
  - {x: 8, y: -0.5}
  - {x: 8.5, y: -0.5}
  - {x: 9, y: -0.5}
  - {x: 9.5, y: -0.5}
  - {x: 10, y: -0.5}
  - {x: 10.5, y: -0.5}
  - {x: 11, y: -0.5}
  - {x: 11.5, y: -0.5}
  - {x: 12, y: -0.5}
  - {x: 12, y: 0}
  - {x: 11.5, y: 0}
  - {x: 11, y: 0}
  - {x: 10.5, y: 0}
  - {x: 10, y: 0}
  - {x: 9.5, y: 0}
  - {x: 9, y: 0}
  - {x: 8.5, y: 0}
  - {x: 8, y: 0}
  - {x: 7.5, y: 0}
  - {x: 7, y: 0}
  - {x: 6.5, y: 0}
  - {x: 6, y: 0}
  - {x: 5.5, y: 0}
  - {x: 5, y: 0}
  - {x: 4.5, y: 0}
  - {x: 4, y: 0}
  - {x: 3.5, y: 0}
  - {x: 3, y: 0}
  - {x: 2.5, y: 0}
  - {x: 2, y: 0}
  - {x: 1.5, y: 0}
  - {x: 1, y: 0}
  - {x: 0.5, y: 0}
  - {x: 0, y: 0}
  dotMesh: {fileID: 4300000, guid: 1c07f60c054597d45b209390972c4353, type: 2}
  trailMesh: {fileID: 4300000, guid: 600443b56bd42ef4aa28998394ea62a1, type: 2}
  bbTopLeft: {x: 0, y: 0}
  bbBotRight: {x: 12, y: -1.5}
