%YAML 1.1
%TAG !u! tag:unity3d.com,2011:
--- !u!114 &11400000
MonoBehaviour:
  m_ObjectHideFlags: 0
  m_PrefabParentObject: {fileID: 0}
  m_PrefabInternal: {fileID: 0}
  m_GameObject: {fileID: 0}
  m_Enabled: 1
  m_EditorHideFlags: 0
  m_Script: {fileID: 11500000, guid: 2bbcd782178fca346aba6b13535bec29, type: 3}
  m_Name: StarDustCloud_Penguin_140
  m_EditorClassIdentifier: 
  type: 30
  rarity: 1
  points:
  - {x: -0.13, y: -2.58}
  - {x: -1.25, y: -3.08}
  - {x: 0.72, y: 3.72}
  - {x: 0.27, y: -2.75}
  - {x: 0.97, y: 3.79}
  - {x: -0.64, y: -2.63}
  - {x: 1.19, y: 3.85}
  - {x: -0.36, y: -2.98}
  - {x: 1.55, y: 3.95}
  - {x: 0.57, y: 3.63}
  - {x: 0.49, y: 3.81}
  - {x: -0.05, y: 3.79}
  - {x: -0.05, y: 3.62}
  - {x: -0.17, y: 3.72}
  - {x: 1.169, y: 0.645}
  - {x: 1.109, y: 0.953}
  - {x: -1.487, y: 0.308}
  - {x: -1.472, y: 0.563}
  - {x: -1.434, y: 0.833}
  - {x: 0.08, y: -2.567}
  - {x: 0.546, y: -2.529}
  - {x: 0.313, y: -2.597}
  - {x: 0.162, y: -3.108}
  - {x: 0.21, y: -2.92}
  - {x: 0.034, y: -3.281}
  - {x: 0.004, y: -3.484}
  - {x: 0.222, y: -3.446}
  - {x: 0.327, y: -3.596}
  - {x: 0.44, y: -3.74}
  - {x: 0.62, y: -3.754}
  - {x: 0.733, y: -3.559}
  - {x: 0.838, y: -3.432}
  - {x: 0.988, y: -3.552}
  - {x: 1.168, y: -3.462}
  - {x: 1.183, y: -3.259}
  - {x: 1.093, y: -3.079}
  - {x: 0.943, y: -2.884}
  - {x: 0.823, y: -2.681}
  - {x: 0.763, y: -2.448}
  - {x: 0.846, y: -2.245}
  - {x: 0.989, y: -2.027}
  - {x: 1.087, y: -1.772}
  - {x: 1.17, y: -1.509}
  - {x: 1.223, y: -1.246}
  - {x: 1.268, y: -0.976}
  - {x: 1.283, y: -0.691}
  - {x: 1.283, y: -0.421}
  - {x: 1.275, y: -0.181}
  - {x: 1.252, y: 0.074}
  - {x: 1.252, y: 0.329}
  - {x: 1.575, y: 0.269}
  - {x: 1.883, y: 0.179}
  - {x: 2.153, y: 0.111}
  - {x: 2.393, y: -0.009}
  - {x: 2.663, y: -0.107}
  - {x: 2.956, y: -0.212}
  - {x: 3.234, y: -0.28}
  - {x: 3.445, y: -0.153}
  - {x: 3.43, y: 0.125}
  - {x: 3.294, y: 0.396}
  - {x: 3.084, y: 0.576}
  - {x: 2.851, y: 0.704}
  - {x: 2.626, y: 0.839}
  - {x: 2.356, y: 0.937}
  - {x: 2.101, y: 1.027}
  - {x: 1.808, y: 1.102}
  - {x: 1.5, y: 1.147}
  - {x: 1.2, y: 1.215}
  - {x: 1.005, y: 1.478}
  - {x: 0.87, y: 1.733}
  - {x: 0.705, y: 1.958}
  - {x: 0.517, y: 2.191}
  - {x: 0.412, y: 2.446}
  - {x: 0.427, y: 2.709}
  - {x: 0.51, y: 2.979}
  - {x: 0.6, y: 3.219}
  - {x: 0.705, y: 3.437}
  - {x: 0.93, y: 3.595}
  - {x: 1.185, y: 3.708}
  - {x: 1.395, y: 3.836}
  - {x: 1.387, y: 4.054}
  - {x: 1.117, y: 4.077}
  - {x: 0.839, y: 4.054}
  - {x: 0.531, y: 4.009}
  - {x: 0.276, y: 4.084}
  - {x: -0.002, y: 4.092}
  - {x: -0.272, y: 4.017}
  - {x: -0.482, y: 3.882}
  - {x: -0.662, y: 3.679}
  - {x: -0.782, y: 3.446}
  - {x: -0.887, y: 3.206}
  - {x: -0.947, y: 2.966}
  - {x: -0.992, y: 2.726}
  - {x: -0.992, y: 2.463}
  - {x: -1.007, y: 2.208}
  - {x: -1.09, y: 1.975}
  - {x: -1.21, y: 1.757}
  - {x: -1.293, y: 1.517}
  - {x: -1.354, y: 1.285}
  - {x: -1.467, y: 1.06}
  - {x: -1.745, y: 1}
  - {x: -2.015, y: 0.94}
  - {x: -2.27, y: 0.857}
  - {x: -2.495, y: 0.752}
  - {x: -2.698, y: 0.632}
  - {x: -2.893, y: 0.474}
  - {x: -3.096, y: 0.294}
  - {x: -3.231, y: 0.091}
  - {x: -3.321, y: -0.134}
  - {x: -3.344, y: -0.382}
  - {x: -3.209, y: -0.525}
  - {x: -2.954, y: -0.457}
  - {x: -2.729, y: -0.337}
  - {x: -2.489, y: -0.217}
  - {x: -2.271, y: -0.112}
  - {x: -2.046, y: -0.022}
  - {x: -1.776, y: 0.046}
  - {x: -1.521, y: 0.031}
  - {x: -1.521, y: -0.224}
  - {x: -1.521, y: -0.449}
  - {x: -1.521, y: -0.689}
  - {x: -1.483, y: -0.952}
  - {x: -1.438, y: -1.192}
  - {x: -1.37, y: -1.425}
  - {x: -1.295, y: -1.65}
  - {x: -1.182, y: -1.898}
  - {x: -1.062, y: -2.131}
  - {x: -0.912, y: -2.319}
  - {x: -0.844, y: -2.567}
  - {x: -0.927, y: -2.785}
  - {x: -1.115, y: -2.95}
  - {x: -1.42, y: -3.19}
  - {x: -1.363, y: -3.378}
  - {x: -1.153, y: -3.355}
  - {x: -1.003, y: -3.49}
  - {x: -0.898, y: -3.663}
  - {x: -0.68, y: -3.558}
  - {x: -0.495, y: -3.52}
  - {x: -0.3, y: -3.518}
  - {x: -0.23, y: -3.37}
  - {x: -0.27, y: -3.15}
  - {x: -0.4, y: -2.83}
  - {x: -0.37, y: -2.63}
  dotMesh: {fileID: 4300000, guid: d128e6b4e77bc6843b9447010cf31696, type: 2}
  trailMesh: {fileID: 4300000, guid: f72ecfede73c0cc41a6419509dde9ac8, type: 2}
  bbTopLeft: {x: -3.344, y: 4.092}
  bbBotRight: {x: 3.445, y: -3.754}
