%YAML 1.1
%TAG !u! tag:unity3d.com,2011:
--- !u!114 &11400000
MonoBehaviour:
  m_ObjectHideFlags: 0
  m_PrefabParentObject: {fileID: 0}
  m_PrefabInternal: {fileID: 0}
  m_GameObject: {fileID: 0}
  m_Enabled: 1
  m_EditorHideFlags: 0
  m_Script: {fileID: 11500000, guid: 2bbcd782178fca346aba6b13535bec29, type: 3}
  m_Name: StarDustCloud_bug_30
  m_EditorClassIdentifier: 
  type: 3
  rarity: 0
  points:
  - {x: -0.649, y: -0.015}
  - {x: 0.916, y: -0.29}
  - {x: 0.321, y: -0.366}
  - {x: -0.214, y: -0.214}
  - {x: -0.107, y: -0.069}
  - {x: 0.107, y: -0.137}
  - {x: 0.366, y: -0.145}
  - {x: 0.596, y: -0.137}
  - {x: 0.832, y: -0.114}
  - {x: 1.011, y: -0.04}
  - {x: 0.955, y: 0.177}
  - {x: 0.818, y: 0.337}
  - {x: 0.634, y: 0.457}
  - {x: 0.401, y: 0.465}
  - {x: 0.168, y: 0.457}
  - {x: -0.048, y: 0.345}
  - {x: -0.249, y: 0.538}
  - {x: -0.12, y: 0.69}
  - {x: -0.554, y: 0.57}
  - {x: -0.666, y: 0.746}
  - {x: -0.28, y: 0.11}
  - {x: -0.698, y: 0.212}
  - {x: -0.379, y: -0.057}
  - {x: -0.265, y: 0.353}
  - {x: -0.554, y: 0.361}
  - {x: 0.923, y: -0.441}
  - {x: 0.201, y: -0.522}
  - {x: -0.217, y: -0.385}
  - {x: 0.048, y: 0.834}
  - {x: -0.931, y: 0.81}
  dotMesh: {fileID: 4300000, guid: 52d7e5b9d6974554084f345fe3b06e93, type: 2}
  trailMesh: {fileID: 4300000, guid: 1ac836ef0968118419374cca1322d1f5, type: 2}
  bbTopLeft: {x: -0.931, y: 0.834}
  bbBotRight: {x: 1.011, y: -0.522}
