%YAML 1.1
%TAG !u! tag:unity3d.com,2011:
--- !u!114 &11400000
MonoBehaviour:
  m_ObjectHideFlags: 0
  m_PrefabParentObject: {fileID: 0}
  m_PrefabInternal: {fileID: 0}
  m_GameObject: {fileID: 0}
  m_Enabled: 1
  m_EditorHideFlags: 0
  m_Script: {fileID: 11500000, guid: 196d4221efb6278498dd37275553ac7a, type: 3}
  m_Name: 3c_AlienGrossData
  m_EditorClassIdentifier: 
  type: 8
  sector: 2
  speed: 6
  controller: {fileID: 9100000, guid: 11a809e8a8e9cd14a8c2b910df32376b, type: 2}
  scale: {x: 0.25, y: 0.25, z: 1}
  spriteSheetDir: 1
