%YAML 1.1
%TAG !u! tag:unity3d.com,2011:
--- !u!114 &11400000
MonoBehaviour:
  m_ObjectHideFlags: 0
  m_PrefabParentObject: {fileID: 0}
  m_PrefabInternal: {fileID: 0}
  m_GameObject: {fileID: 0}
  m_Enabled: 1
  m_EditorHideFlags: 0
  m_Script: {fileID: 11500000, guid: e0ebc6cf4516db649972c5337b50c91b, type: 3}
  m_Name: Gamestart
  m_EditorClassIdentifier: UnityEngine:UnityEngine:ScriptableObject
  id: 1
  noun: Gamestarts
  activity: Starting The Game
